[gd_scene load_steps=6 format=2]

[ext_resource path="res://Scenes/Resources/Trees.tres" type="Texture" id=1]
[ext_resource path="res://Scripts/Resources/Trees/TreesCtrl.gd" type="Script" id=2]
[ext_resource path="res://Scripts/Resources/Trees/TreesIdleState.gd" type="Script" id=4]
[ext_resource path="res://Scripts/Resources/Trees/TreesSpentState.gd" type="Script" id=5]

[sub_resource type="RectangleShape2D" id=1]
extents = Vector2( 7, 7 )

[node name="Trees" type="Area2D" groups=[
"Trees",
]]
script = ExtResource( 2 )

[node name="Sprite" type="Sprite" parent="."]
position = Vector2( 3.57628e-07, -1.19209e-07 )
texture = ExtResource( 1 )

[node name="CollisionShape2D" type="CollisionShape2D" parent="."]
shape = SubResource( 1 )

[node name="ActiveState" type="Node2D" parent="."]
script = ExtResource( 4 )

[node name="SpentState" type="Node2D" parent="."]
script = ExtResource( 5 )
