[gd_resource type="AtlasTexture" load_steps=2 format=2]

[ext_resource path="res://Assets/World/Tile-set - Toen's Medieval Strategy (16x16) - v.1.0.png" type="Texture" id=1]

[resource]
atlas = ExtResource( 1 )
region = Rect2( 32, 16, 16, 16 )
