[gd_resource type="AtlasTexture" load_steps=2 format=2]

[ext_resource path="res://Assets/UI/ButtonPanel/Sawmill/sawmill_button_sheet.png" type="Texture" id=1]

[resource]
atlas = ExtResource( 1 )
region = Rect2( 27, 1, 24, 24 )
